<?xml version="1.0" encoding="utf-8"?>
<!-- Generator: Adobe Illustrator 18.0.0, SVG Export Plug-In . SVG Version: 6.00 Build 0)  -->
<!DOCTYPE svg PUBLIC "-//W3C//DTD SVG 1.1//EN" "http://www.w3.org/Graphics/SVG/1.1/DTD/svg11.dtd">
<svg version="1.1" id="Layer_1" xmlns="http://www.w3.org/2000/svg" xmlns:xlink="http://www.w3.org/1999/xlink" x="500px" y="500px" width="500px" height="500px"
 	 viewBox="0 0 474 1024" enable-background="new 0 0 474 1024" xml:space="preserve">
<g id="mens2a_GREY" display="none">
	<g display="inline">
		<path id="strap-connector-left" fill="#4F4F4F" d="M274.2,200.5c0,0,25.7-30.3,33.3-33.4c7.6-3.1,14.7-3.5,17.8,6.8
			c3.3,10.4,5.8,37-1.9,40.7l-22.8-7.1L274.2,200.5z"/>
		<g id="strap-highlight-left">
			<path fill="#000" d="M418.1,509.7c-20.9,57.1-36,79.6-52.2,120.3c-17,43.6-37.6,76.1-48.1,70.8c-10.4-5.7-13.1-38,11.7-93.3
				c23.3-52.4,94.1-154.2,88.8-205c1.6,11.7,10,36.2,8.8,67.3C426.7,482.3,420.2,495.8,418.1,509.7z"/>
			<path fill="#000" d="M113.8,358.1c-1.4,5.5-2,10.8-1.6,16.2c2.9,37.2,39.1,147.1,47.5,193.7c7.8,46.6,18.4,120.1-12.1,144.8
				c-13.9,10.2-18.8-14.3-21.7-67.9c-2-39.5-9.2-92.7-15.8-133.8l0,0l0,0c-1-5.5-1.8-11-2.9-15.7
				C94.1,406.4,113.8,358.5,113.8,358.1z"/>
		</g>
		<path id="strap-left-path" fill="none" d="M423.7,407.3c0,0-3.5-22.5-38.6-94.8c-52.8-109-96.6-107.2-100.2-106.9
			c-12.3,0.8-46.5,10.5-107.7,82.2c-52.5,61.5-59.3,83.4-59.3,83.4"/>
		<path fill="none" stroke="#4F4F4F" stroke-width="25" d="M279,205.6c0,0-12.1,19.8-30.8,48.7"/>
		<path fill="none" stroke="#4F4F4F" stroke-width="25" d="M310.3,210.4c0,0,2.9,19.4,10.3,50.9"/>
		<g>
			<path fill="#76797C" d="M367.9,300.5c-1-2.2-1.9-4.9-3.2-8.3c-13.2-36.8-33.3-74.5-81.9-75.3c-0.4,0-0.8,0-1.3,0
				c-62.7,0-101,76.3-101.4,77l-22.4-11.1c1.8-3.7,45.8-91,123.8-91c0.6,0,1.1,0,1.7,0c72.4,1.2,96.1,67,105,91.8
				c1,2.8,1.9,5.3,2.5,6.7L367.9,300.5L367.9,300.5z"/>
		</g>
		<path fill="none" stroke="#5D6266" stroke-width="25" d="M254,246.9c0,0-63,99.6-142,174.6"/>
		<path fill="none" stroke="#5D6266" stroke-width="25" d="M321.4,256.4c0,0,33.6,110.6,93.9,201.3"/>
		<path fill="#76797C" d="M427.3,407.3c0,0,16.4,74-33.4,161.1c0,0,18-111.7,13.2-141.9c0,0-8.3-85.1-30-120.1
			c-17.2-27.7,22.2,1.1,43,49.6C420,356,426.1,400,427.3,407.3z"/>
		<path fill="#76797C" d="M104.3,394c0,0-16.6,58.5,14.8,179.5c0,0-19.7-133.3,43-263c0,0-25.9,17.2-40.8,24.3
			C121.2,334.8,107,372.2,104.3,394z"/>
		<g>
			<path fill="#8C8F93" d="M431.1,431.1l-15.8-39.6c-14.6-34.4-8.8-45.8-52.2-93.7c-20.3-22.4-48.5-34.3-83.9-35.4
				c-56-1.7-96.1,21.6-125.4,65C105,399.5,99.5,445.2,99.5,445.5c0,0-1.3-23.3,4-54.7c4.9-28.8,5.2-37.6,28.8-76.4
				c22.2-36.5,65.8-79.5,147.5-77c42.5,1.3,77.6,15.2,101.8,43.7c42,49.6,44.7,107.2,45.6,118.6L431.1,431.1z"/>
		</g>
	</g>
</g>
<g id="mens2a_BLACK" display="none">
	<g display="inline">
		<path id="strap-connector-left_1_" d="M274.2,200.5c0,0,25.7-30.3,33.3-33.4c7.6-3.1,14.7-3.5,17.8,6.8c3.3,10.4,5.8,37-1.9,40.7
			l-22.8-7.1L274.2,200.5z"/>
		<g id="strap-highlight-left_1_">
			<path d="M418.1,509.7c-20.9,57.1-36,79.6-52.2,120.3c-17,43.6-37.6,76.1-48.1,70.8c-10.4-5.7-13.1-38,11.7-93.3
				c23.3-52.4,94.1-154.2,88.8-205c1.6,11.7,10,36.2,8.8,67.3C426.7,482.3,420.2,495.8,418.1,509.7z"/>
			<path d="M113.8,358.1c-1.4,5.5-2,10.8-1.6,16.2c2.9,37.2,39.1,147.1,47.5,193.7c7.8,46.6,18.4,120.1-12.1,144.8
				c-13.9,10.2-18.8-14.3-21.7-67.9c-2-39.5-9.2-92.7-15.8-133.8l0,0l0,0c-1-5.5-1.8-11-2.9-15.7
				C94.1,406.4,113.8,358.5,113.8,358.1z"/>
		</g>
		<path id="strap-left-path_1_" fill="none" d="M423.7,407.3c0,0-3.5-22.5-38.6-94.8c-52.8-109-96.6-107.2-100.2-106.9
			c-12.3,0.8-46.5,10.5-107.7,82.2c-52.5,61.5-59.3,83.4-59.3,83.4"/>
		<g>
			<path d="M258.7,261.1l-21-13.6c18.4-28.4,30.5-48.2,30.7-48.4l21.3,13.1C289.5,212.3,277.2,232.4,258.7,261.1L258.7,261.1z"/>
		</g>
		<g>
			<path d="M308.5,264.2c-7.5-31.7-10.4-51.1-10.5-51.9l24.7-3.7c0.1,0.3,2.9,19.4,10.1,49.9L308.5,264.2L308.5,264.2z M310.3,210.4
				l12.4-1.8c0,0,0,0,0,0L310.3,210.4L310.3,210.4z"/>
		</g>
		<g>
			<path fill="#191919" d="M367.9,300.5c-1-2.2-1.9-4.9-3.2-8.3c-13.2-36.8-33.3-74.5-81.9-75.3c-0.4,0-0.8,0-1.3,0
				c-62.7,0-101,76.3-101.4,77l-22.4-11.1c1.8-3.7,45.8-91,123.8-91c0.6,0,1.1,0,1.7,0c72.4,1.2,96.1,67,105,91.8
				c1,2.8,1.9,5.3,2.5,6.7L367.9,300.5L367.9,300.5z"/>
		</g>
		<g>
			<path fill="#111111" d="M120.6,430.6l-17.2-18.1c77-73.1,139.4-171.3,140.1-172.2l21.1,13.4C262,257.7,199.8,355.4,120.6,430.6
				L120.6,430.6z"/>
		</g>
		<g>
			<path fill="#111111" d="M404.8,464.7c-60.6-91.2-94-200-95.4-204.6l23.9-7.3c0.4,1.2,33.8,110,92.3,198.1L404.8,464.7
				L404.8,464.7z M321.4,256.4l12-3.6c0,0,0,0,0,0L321.4,256.4L321.4,256.4z"/>
		</g>
		<path fill="#191919" d="M427.3,407.3c0,0,16.4,74-33.4,161.1c0,0,18-111.7,13.2-141.9c0,0-8.3-85.1-30-120.1
			c-17.2-27.7,22.2,1.1,43,49.6C420,356,426.1,400,427.3,407.3z"/>
		<path fill="#191919" d="M104.3,394c0,0-16.6,58.5,14.8,179.5c0,0-19.7-133.3,43-263c0,0-25.9,17.2-40.8,24.3
			C121.2,334.8,107,372.2,104.3,394z"/>
		<g>
			<path fill="#2B2B2B" d="M431.1,431.1l-15.8-39.6c-14.6-34.4-8.8-45.8-52.2-93.7c-20.3-22.4-48.5-34.3-83.9-35.4
				c-56-1.7-96.1,21.6-125.4,65C105,399.5,99.5,445.2,99.5,445.5c0,0-1.3-23.3,4-54.7c4.9-28.8,5.2-37.6,28.8-76.4
				c22.2-36.5,65.8-79.5,147.5-77c42.5,1.3,77.6,15.2,101.8,43.7c42,49.6,44.7,107.2,45.6,118.6L431.1,431.1z"/>
		</g>
	</g>
</g>
<g id="mens2a_GREEN" display="none">
	<g display="inline">
		<path id="strap-connector-left_2_" fill="#062B20" d="M274.2,200.5c0,0,25.7-30.3,33.3-33.4c7.6-3.1,14.7-3.5,17.8,6.8
			c3.3,10.4,5.8,37-1.9,40.7l-22.8-7.1L274.2,200.5z"/>
		<g id="strap-highlight-left_2_">
			<path fill="#062B20" d="M418.1,509.7c-20.9,57.1-36,79.6-52.2,120.3c-17,43.6-37.6,76.1-48.1,70.8c-10.4-5.7-13.1-38,11.7-93.3
				c23.3-52.4,94.1-154.2,88.8-205c1.6,11.7,10,36.2,8.8,67.3C426.7,482.3,420.2,495.8,418.1,509.7z"/>
			<path fill="#062B20" d="M113.8,358.1c-1.4,5.5-2,10.8-1.6,16.2c2.9,37.2,39.1,147.1,47.5,193.7c7.8,46.6,18.4,120.1-12.1,144.8
				c-13.9,10.2-18.8-14.3-21.7-67.9c-2-39.5-9.2-92.7-15.8-133.8l0,0l0,0c-1-5.5-1.8-11-2.9-15.7
				C94.1,406.4,113.8,358.5,113.8,358.1z"/>
		</g>
		<path id="strap-left-path_2_" fill="none" d="M423.7,407.3c0,0-3.5-22.5-38.6-94.8c-52.8-109-96.6-107.2-100.2-106.9
			c-12.3,0.8-46.5,10.5-107.7,82.2c-52.5,61.5-59.3,83.4-59.3,83.4"/>
		<g>
			<path fill="#062B20" d="M258.7,261.1l-21-13.6c18.4-28.4,30.5-48.2,30.7-48.4l21.3,13.1C289.5,212.3,277.2,232.4,258.7,261.1
				L258.7,261.1z"/>
		</g>
		<g>
			<path fill="#062B20" d="M308.5,264.2c-7.5-31.7-10.4-51.1-10.5-51.9l24.7-3.7c0.1,0.3,2.9,19.4,10.1,49.9L308.5,264.2
				L308.5,264.2z M310.3,210.4l12.4-1.8c0,0,0,0,0,0L310.3,210.4L310.3,210.4z"/>
		</g>
		<g>
			<path fill="#093A2D" d="M367.9,300.5c-1-2.2-1.9-4.9-3.2-8.3c-13.2-36.8-33.3-74.5-81.9-75.3c-0.4,0-0.8,0-1.3,0
				c-62.7,0-101,76.3-101.4,77l-22.4-11.1c1.8-3.7,45.8-91,123.8-91c0.6,0,1.1,0,1.7,0c72.4,1.2,96.1,67,105,91.8
				c1,2.8,1.9,5.3,2.5,6.7L367.9,300.5L367.9,300.5z"/>
		</g>
		<g>
			<path fill="#093A2D" d="M120.6,430.6l-17.2-18.1c77-73.1,139.4-171.3,140.1-172.2l21.1,13.4C262,257.7,199.8,355.4,120.6,430.6
				L120.6,430.6z"/>
		</g>
		<g>
			<path fill="#093A2D" d="M404.8,464.7c-60.6-91.2-94-200-95.4-204.6l23.9-7.3c0.4,1.2,33.8,110,92.3,198.1L404.8,464.7
				L404.8,464.7z M321.4,256.4l12-3.6c0,0,0,0,0,0L321.4,256.4L321.4,256.4z"/>
		</g>
		<path fill="#093A2D" d="M427.3,407.3c0,0,16.4,74-33.4,161.1c0,0,18-111.7,13.2-141.9c0,0-8.3-85.1-30-120.1
			c-17.2-27.7,22.2,1.1,43,49.6C420,356,426.1,400,427.3,407.3z"/>
		<path fill="#093A2D" d="M104.3,394c0,0-16.6,58.5,14.8,179.5c0,0-19.7-133.3,43-263c0,0-25.9,17.2-40.8,24.3
			C121.2,334.8,107,372.2,104.3,394z"/>
		<g>
			<path fill="#0A4436" d="M431.1,431.1l-15.8-39.6c-14.6-34.4-8.8-45.8-52.2-93.7c-20.3-22.4-48.5-34.3-83.9-35.4
				c-56-1.7-96.1,21.6-125.4,65C105,399.5,99.5,445.2,99.5,445.5c0,0-1.3-23.3,4-54.7c4.9-28.8,5.2-37.6,28.8-76.4
				c22.2-36.5,65.8-79.5,147.5-77c42.5,1.3,77.6,15.2,101.8,43.7c42,49.6,44.7,107.2,45.6,118.6L431.1,431.1z"/>
		</g>
	</g>
</g>
<g id="mens2a_ORGANGE" display="none">
	<g display="inline">
		<path id="strap-connector-left_3_" fill="#D1552F" d="M274.2,200.5c0,0,25.7-30.3,33.3-33.4c7.6-3.1,14.7-3.5,17.8,6.8
			c3.3,10.4,5.8,37-1.9,40.7l-22.8-7.1L274.2,200.5z"/>
		<g id="strap-highlight-left_3_">
			<path fill="#D1552F" d="M418.1,509.7c-20.9,57.1-36,79.6-52.2,120.3c-17,43.6-37.6,76.1-48.1,70.8c-10.4-5.7-13.1-38,11.7-93.3
				c23.3-52.4,94.1-154.2,88.8-205c1.6,11.7,10,36.2,8.8,67.3C426.7,482.3,420.2,495.8,418.1,509.7z"/>
			<path fill="#D1552F" d="M113.8,358.1c-1.4,5.5-2,10.8-1.6,16.2c2.9,37.2,39.1,147.1,47.5,193.7c7.8,46.6,18.4,120.1-12.1,144.8
				c-13.9,10.2-18.8-14.3-21.7-67.9c-2-39.5-9.2-92.7-15.8-133.8l0,0l0,0c-1-5.5-1.8-11-2.9-15.7
				C94.1,406.4,113.8,358.5,113.8,358.1z"/>
		</g>
		<path id="strap-left-path_3_" fill="none" d="M423.7,407.3c0,0-3.5-22.5-38.6-94.8c-52.8-109-96.6-107.2-100.2-106.9
			c-12.3,0.8-46.5,10.5-107.7,82.2c-52.5,61.5-59.3,83.4-59.3,83.4"/>
		<g>
			<path fill="#D1552F" d="M258.7,261.1l-21-13.6c18.4-28.4,30.5-48.2,30.7-48.4l21.3,13.1C289.5,212.3,277.2,232.4,258.7,261.1
				L258.7,261.1z"/>
		</g>
		<g>
			<path fill="#D1552F" d="M308.5,264.2c-7.5-31.7-10.4-51.1-10.5-51.9l24.7-3.7c0.1,0.3,2.9,19.4,10.1,49.9L308.5,264.2
				L308.5,264.2z M310.3,210.4l12.4-1.8c0,0,0,0,0,0L310.3,210.4L310.3,210.4z"/>
		</g>
		<g>
			<path fill="#EA633F" d="M367.9,300.5c-1-2.2-1.9-4.9-3.2-8.3c-13.2-36.8-33.3-74.5-81.9-75.3c-0.4,0-0.8,0-1.3,0
				c-62.7,0-101,76.3-101.4,77l-22.4-11.1c1.8-3.7,45.8-91,123.8-91c0.6,0,1.1,0,1.7,0c72.4,1.2,96.1,67,105,91.8
				c1,2.8,1.9,5.3,2.5,6.7L367.9,300.5L367.9,300.5z"/>
		</g>
		<g>
			<path fill="#D8553A" d="M120.6,430.6l-17.2-18.1c77-73.1,139.4-171.3,140.1-172.2l21.1,13.4C262,257.7,199.8,355.4,120.6,430.6
				L120.6,430.6z"/>
		</g>
		<g>
			<path fill="#D8553A" d="M404.8,464.7c-60.6-91.2-94-200-95.4-204.6l23.9-7.3c0.4,1.2,33.8,110,92.3,198.1L404.8,464.7
				L404.8,464.7z M321.4,256.4l12-3.6c0,0,0,0,0,0L321.4,256.4L321.4,256.4z"/>
		</g>
		<path fill="#EA633F" d="M427.3,407.3c0,0,16.4,74-33.4,161.1c0,0,18-111.7,13.2-141.9c0,0-8.3-85.1-30-120.1
			c-17.2-27.7,22.2,1.1,43,49.6C420,356,426.1,400,427.3,407.3z"/>
		<path fill="#EA633F" d="M104.3,394c0,0-16.6,58.5,14.8,179.5c0,0-19.7-133.3,43-263c0,0-25.9,17.2-40.8,24.3
			C121.2,334.8,107,372.2,104.3,394z"/>
		<g>
			<path fill="#FF7145" d="M431.1,431.1l-15.8-39.6c-14.6-34.4-8.8-45.8-52.2-93.7c-20.3-22.4-48.5-34.3-83.9-35.4
				c-56-1.7-96.1,21.6-125.4,65C105,399.5,99.5,445.2,99.5,445.5c0,0-1.3-23.3,4-54.7c4.9-28.8,5.2-37.6,28.8-76.4
				c22.2-36.5,65.8-79.5,147.5-77c42.5,1.3,77.6,15.2,101.8,43.7c42,49.6,44.7,107.2,45.6,118.6L431.1,431.1z"/>
		</g>
	</g>
</g>
<g id="mens2a_YELLOW" display="none">
	<g display="inline">
		<path id="strap-connector-left_4_" fill="#BC7B1D" d="M274.2,200.5c0,0,25.7-30.3,33.3-33.4c7.6-3.1,14.7-3.5,17.8,6.8
			c3.3,10.4,5.8,37-1.9,40.7l-22.8-7.1L274.2,200.5z"/>
		<g id="strap-highlight-left_4_">
			<path fill="#BC7B1D" d="M418.1,509.7c-20.9,57.1-36,79.6-52.2,120.3c-17,43.6-37.6,76.1-48.1,70.8c-10.4-5.7-13.1-38,11.7-93.3
				c23.3-52.4,94.1-154.2,88.8-205c1.6,11.7,10,36.2,8.8,67.3C426.7,482.3,420.2,495.8,418.1,509.7z"/>
			<path fill="#BC7B1D" d="M113.8,358.1c-1.4,5.5-2,10.8-1.6,16.2c2.9,37.2,39.1,147.1,47.5,193.7c7.8,46.6,18.4,120.1-12.1,144.8
				c-13.9,10.2-18.8-14.3-21.7-67.9c-2-39.5-9.2-92.7-15.8-133.8l0,0l0,0c-1-5.5-1.8-11-2.9-15.7
				C94.1,406.4,113.8,358.5,113.8,358.1z"/>
		</g>
		<path id="strap-left-path_4_" fill="none" d="M423.7,407.3c0,0-3.5-22.5-38.6-94.8c-52.8-109-96.6-107.2-100.2-106.9
			c-12.3,0.8-46.5,10.5-107.7,82.2c-52.5,61.5-59.3,83.4-59.3,83.4"/>
		<g>
			<path fill="#BC7B1D" d="M258.7,261.1l-21-13.6c18.4-28.4,30.5-48.2,30.7-48.4l21.3,13.1C289.5,212.3,277.2,232.4,258.7,261.1
				L258.7,261.1z"/>
		</g>
		<g>
			<path fill="#BC7B1D" d="M308.5,264.2c-7.5-31.7-10.4-51.1-10.5-51.9l24.7-3.7c0.1,0.3,2.9,19.4,10.1,49.9L308.5,264.2
				L308.5,264.2z M310.3,210.4l12.4-1.8c0,0,0,0,0,0L310.3,210.4L310.3,210.4z"/>
		</g>
		<g>
			<path fill="#E5A030" d="M367.9,300.5c-1-2.2-1.9-4.9-3.2-8.3c-13.2-36.8-33.3-74.5-81.9-75.3c-0.4,0-0.8,0-1.3,0
				c-62.7,0-101,76.3-101.4,77l-22.4-11.1c1.8-3.7,45.8-91,123.8-91c0.6,0,1.1,0,1.7,0c72.4,1.2,96.1,67,105,91.8
				c1,2.8,1.9,5.3,2.5,6.7L367.9,300.5L367.9,300.5z"/>
		</g>
		<g>
			<path fill="#D89432" d="M120.6,430.6l-17.2-18.1c77-73.1,139.4-171.3,140.1-172.2l21.1,13.4C262,257.7,199.8,355.4,120.6,430.6
				L120.6,430.6z"/>
		</g>
		<g>
			<path fill="#D89432" d="M404.8,464.7c-60.6-91.2-94-200-95.4-204.6l23.9-7.3c0.4,1.2,33.8,110,92.3,198.1L404.8,464.7
				L404.8,464.7z M321.4,256.4l12-3.6c0,0,0,0,0,0L321.4,256.4L321.4,256.4z"/>
		</g>
		<path fill="#E5A030" d="M427.3,407.3c0,0,16.4,74-33.4,161.1c0,0,18-111.7,13.2-141.9c0,0-8.3-85.1-30-120.1
			c-17.2-27.7,22.2,1.1,43,49.6C420,356,426.1,400,427.3,407.3z"/>
		<path fill="#E5A030" d="M104.3,394c0,0-16.6,58.5,14.8,179.5c0,0-19.7-133.3,43-263c0,0-25.9,17.2-40.8,24.3
			C121.2,334.8,107,372.2,104.3,394z"/>
		<g>
			<path fill="#F6B332" d="M431.1,431.1l-15.8-39.6c-14.6-34.4-8.8-45.8-52.2-93.7c-20.3-22.4-48.5-34.3-83.9-35.4
				c-56-1.7-96.1,21.6-125.4,65C105,399.5,99.5,445.2,99.5,445.5c0,0-1.3-23.3,4-54.7c4.9-28.8,5.2-37.6,28.8-76.4
				c22.2-36.5,65.8-79.5,147.5-77c42.5,1.3,77.6,15.2,101.8,43.7c42,49.6,44.7,107.2,45.6,118.6L431.1,431.1z"/>
		</g>
	</g>
</g>
<g id="mens2a_RED">
	<g>
		<path id="strap-connector-left_5_" fill="#A50A24" d="M274.2,200.5c0,0,25.7-30.3,33.3-33.4c7.6-3.1,14.7-3.5,17.8,6.8
			c3.3,10.4,5.8,37-1.9,40.7l-22.8-7.1L274.2,200.5z"/>
		<g id="strap-highlight-left_5_">
			<path fill="#A50A24" d="M418.1,509.7c-20.9,57.1-36,79.6-52.2,120.3c-17,43.6-37.6,76.1-48.1,70.8c-10.4-5.7-13.1-38,11.7-93.3
				c23.3-52.4,94.1-154.2,88.8-205c1.6,11.7,10,36.2,8.8,67.3C426.7,482.3,420.2,495.8,418.1,509.7z"/>
			<path fill="#A50A24" d="M113.8,358.1c-1.4,5.5-2,10.8-1.6,16.2c2.9,37.2,39.1,147.1,47.5,193.7c7.8,46.6,18.4,120.1-12.1,144.8
				c-13.9,10.2-18.8-14.3-21.7-67.9c-2-39.5-9.2-92.7-15.8-133.8l0,0l0,0c-1-5.5-1.8-11-2.9-15.7
				C94.1,406.4,113.8,358.5,113.8,358.1z"/>
		</g>
		<path id="strap-left-path_5_" fill="none" d="M423.7,407.3c0,0-3.5-22.5-38.6-94.8c-52.8-109-96.6-107.2-100.2-106.9
			c-12.3,0.8-46.5,10.5-107.7,82.2c-52.5,61.5-59.3,83.4-59.3,83.4"/>
		<g>
			<path fill="#A50A24" d="M258.7,261.1l-21-13.6c18.4-28.4,30.5-48.2,30.7-48.4l21.3,13.1C289.5,212.3,277.2,232.4,258.7,261.1
				L258.7,261.1z"/>
		</g>
		<g>
			<path fill="#A50A24" d="M308.5,264.2c-7.5-31.7-10.4-51.1-10.5-51.9l24.7-3.7c0.1,0.3,2.9,19.4,10.1,49.9L308.5,264.2
				L308.5,264.2z M310.3,210.4l12.4-1.8c0,0,0,0,0,0L310.3,210.4L310.3,210.4z"/>
		</g>
		<g>
			<path fill="#C11431" d="M367.9,300.5c-1-2.2-1.9-4.9-3.2-8.3c-13.2-36.8-33.3-74.5-81.9-75.3c-0.4,0-0.8,0-1.3,0
				c-62.7,0-101,76.3-101.4,77l-22.4-11.1c1.8-3.7,45.8-91,123.8-91c0.6,0,1.1,0,1.7,0c72.4,1.2,96.1,67,105,91.8
				c1,2.8,1.9,5.3,2.5,6.7L367.9,300.5L367.9,300.5z"/>
		</g>
		<g>
			<path fill="#A8183A" d="M120.6,430.6l-17.2-18.1c77-73.1,139.4-171.3,140.1-172.2l21.1,13.4C262,257.7,199.8,355.4,120.6,430.6
				L120.6,430.6z"/>
		</g>
		<g>
			<path fill="#A8183A" d="M404.8,464.7c-60.6-91.2-94-200-95.4-204.6l23.9-7.3c0.4,1.2,33.8,110,92.3,198.1L404.8,464.7
				L404.8,464.7z M321.4,256.4l12-3.6c0,0,0,0,0,0L321.4,256.4L321.4,256.4z"/>
		</g>
		<path fill="#C11431" d="M427.3,407.3c0,0,16.4,74-33.4,161.1c0,0,18-111.7,13.2-141.9c0,0-8.3-85.1-30-120.1
			c-17.2-27.7,22.2,1.1,43,49.6C420,356,426.1,400,427.3,407.3z"/>
		<path fill="#C11431" d="M104.3,394c0,0-16.6,58.5,14.8,179.5c0,0-19.7-133.3,43-263c0,0-25.9,17.2-40.8,24.3
			C121.2,334.8,107,372.2,104.3,394z"/>
		<g>
			<path fill="#D0112B" d="M431.1,431.1l-15.8-39.6c-14.6-34.4-8.8-45.8-52.2-93.7c-20.3-22.4-48.5-34.3-83.9-35.4
				c-56-1.7-96.1,21.6-125.4,65C105,399.5,99.5,445.2,99.5,445.5c0,0-1.3-23.3,4-54.7c4.9-28.8,5.2-37.6,28.8-76.4
				c22.2-36.5,65.8-79.5,147.5-77c42.5,1.3,77.6,15.2,101.8,43.7c42,49.6,44.7,107.2,45.6,118.6L431.1,431.1z"/>
		</g>
	</g>
</g>
</svg>
