<?xml version="1.0" encoding="utf-8"?>
<!-- Generator: Adobe Illustrator 18.0.0, SVG Export Plug-In . SVG Version: 6.00 Build 0)  -->
<!DOCTYPE svg PUBLIC "-//W3C//DTD SVG 1.1//EN" "http://www.w3.org/Graphics/SVG/1.1/DTD/svg11.dtd">
<svg version="1.1" id="Layer_1" xmlns="http://www.w3.org/2000/svg" xmlns:xlink="http://www.w3.org/1999/xlink" x="0px" y="0px"
	 viewBox="0 0 1193 364" enable-background="new 0 0 1193 364" xml:space="preserve">
<g>
	<g opacity="0.6">
		<g>
			<path d="M111.6,202.4c0,0,0,87.8,0,108.3c0,20.7,4.5,34,14,36.8c6.7,2,16.4,0.9,26.5-15.2c48.5-76.5,11.8-136,11.8-136
				c9.8,0.3,27.8-3.7,27.8-3.7c7.2,22.2,18,35.8,18,35.8c28,34.3,68.2,15.3,68.2,15.3c30.3-15,31.5-37.5,31.5-37.5
				c-13.5-1-16.8-1.2-20,2.7c-3.2,3.8-6.2,8.2-6.2,8.2s-6.3,12.7-30.3,11.3c-24-1.3-36.7-18.8-37.8-40.3
				c-1.2-21.5,10.5-24.8,19-33.5c8.5-8.7,0.8-22.2,0.8-22.2c-19,5.8-26,17.2-34.8,26.3c-8.8,9.2-14.8,14.7-40.5,14.7
				c-25.7,0-25.5-16-25.5-16V46.4c0,0,0.2-9.2-11-9.2c-11.2,0-11,9.2-11,9.2v102.4c0,18.2-3.9,22.8-3.9,22.8 M138.7,311
				c-0.3,0.8-5.3,5.7-5.3-1.4c0-7,0.5-112.3,0.5-112.4h4.5c0,0,15.8,27,15.8,48S152.9,285.9,138.7,311z"/>
			<path d="M816,207c-11,1.5-17.5,25-48.5,21.5s-40.1-35.4-29.6-56.9c0,0,2.3-6.7,9.4-11.9s6.8-11.3,6.8-14.5
				c0-10.4-3.3-9.8-3.3-9.8s-11,0.4-23.8,15.8s-20.3,27.8-29.8,31.3c0,0-6.3-40.2-46.2-51.7c0,0-11.3-2.8-22.3-1.3c0,0-8,1-1.5,27.7
				s34.3,42,50.3,43.8c17.3,2,32.5-6.2,32.5-6.2s1.4-0.5,1.4,1c0,2.9,4.6,27.1,19.6,40.8c15.4,14,49.6,22.8,78.6,0.4
				c0,0,14.7-11,20-29C829.5,208,827,205.5,816,207z M669.1,176.1c-4.3-1.3-12.6-6.9-16-14.5c-3.4-7.6-1.5-7.8-1.5-7.8
				c2.8,0.1,5.9,1.5,5.9,1.5c11.2,5.2,15.2,15.6,15.2,15.6c1.1,2.2,1.8,5.9,1.8,5.9C672.6,177,670.4,176.5,669.1,176.1z"/>
			<path d="M953.3,207c-11,1.5-17.5,25-48.5,21.5s-40.1-35.4-29.6-56.9c0,0,2.3-6.7,9.4-11.9s6.8-11.3,6.8-14.5
				c0-10.4-3.3-9.8-3.3-9.8s-11,0.4-23.8,15.8S844,179,834.5,182.5c0,0-6.3-40.2-46.2-51.7c0,0-11.3-2.8-22.3-1.3c0,0-8,1-1.5,27.7
				s34.3,42,50.3,43.8c17.3,2,32.5-6.2,32.5-6.2s1.4-0.5,1.4,1c0,2.9,4.6,27.1,19.6,40.8c15.4,14,49.6,22.8,78.6,0.4
				c0,0,14.7-11,20-29C966.8,208,964.3,205.5,953.3,207z M806.4,176.1c-4.3-1.3-12.6-6.9-16-14.5c-3.4-7.6-1.5-7.8-1.5-7.8
				c2.8,0.1,5.9,1.5,5.9,1.5c11.2,5.2,15.2,15.6,15.2,15.6c1.1,2.2,1.8,5.9,1.8,5.9C809.9,177,807.7,176.5,806.4,176.1z"/>
			<path d="M435,207c-11,1.5-17.5,25-48.5,21.5s-40.1-35.4-29.6-56.9c0,0,2.3-6.7,9.4-11.9s6.8-11.3,6.8-14.5
				c0-10.4-3.3-9.8-3.3-9.8s-11,0.4-23.8,15.8s-20.3,27.8-29.8,31.3c0,0-6.3-40.2-46.2-51.7c0,0-11.3-2.8-22.3-1.3c0,0-8,1-1.5,27.7
				s34.3,42,50.3,43.8c17.3,2,32.5-6.2,32.5-6.2s1.4-0.5,1.4,1c0,2.9,4.6,27.1,19.6,40.8c15.4,14,49.6,22.8,78.6,0.4
				c0,0,14.7-11,20-29C448.5,208,446,205.5,435,207z M288.1,176.1c-4.3-1.3-12.6-6.9-16-14.5c-3.4-7.6-1.5-7.8-1.5-7.8
				c2.8,0.1,5.9,1.5,5.9,1.5c11.2,5.2,15.2,15.6,15.2,15.6c1.1,2.2,1.8,5.9,1.8,5.9C291.6,177,289.4,176.5,288.1,176.1z"/>
			<path d="M690.1,206.9c0,0-11.4-1.7-21.1,5.5c-5.6,4.2-9.8,7.3-9.8,7.3c-18.6,12.3-36.3,7.4-36.3,7.4
				c-28.1-10.1-25.8-39.8-25.8-46.5s5.1-16.5,13.6-20.9s8.3-10,8.3-12.8c0.1-2.8-0.1-11.1-0.1-13.5s-3.8-0.9-3.8-0.9l-16.5,7.6V39.9
				c0-5.1-8.5-3.8-12.6-2.5c-11.7,4.7-9.9,7.7-10.3,9.1v141c0,13.7-6.3,43.2-38.3,41.4c-32-1.8-35.8-35.6-35.9-41.2
				c0-1.5-0.2-26.1-0.2-26.1l0-58L501,46.4c0,0-0.8-9.9-10.4-9.9c-9.7,0-10.5,9.9-10.5,9.9s0,46.2,0,57.2s-7.8,11.5-7.8,11.5h-18.5
				v16.3l17.5,3.5c0,0,3.3,2.3-1.5,20.8c-4.8,18.5-22,20.8-22,20.8s-6-35.7-44.4-46.8c0,0-10.9-2.7-21.6-1.3c0,0-7.7,1.9-1.4,27.7
				c6.3,25.7,33.2,39.5,48.6,42.3c31.8,5.9,49.3-14.8,49.3-14.8c8.6,58.4,42.1,64.7,42.1,64.7c38.4,9.2,67.4-23.5,67.4-23.5
				c3.7,4,28.5,26.3,63.2,19.7c34.7-6.7,40.3-30.8,41.8-34.1S690.1,206.9,690.1,206.9z M423.1,175.1c-4.3-1.3-12.6-6.9-16-14.5
				c-3.4-7.6-1.5-7.8-1.5-7.8c2.8,0.1,5.9,1.5,5.9,1.5c11.2,5.2,15.2,15.6,15.2,15.6c1.1,2.2,1.8,5.9,1.8,5.9
				C426.6,176,424.4,175.5,423.1,175.1z"/>
			<path d="M1176.6,181.4c0,0-21.3,48.7-70.7,45.7c0,0-29.3-1.3-52.2-29.2c0,0-8-17.7-26.2-9.3c0,0-3.6,1.3-2.2,4.3
				c1.4,3,19.7,52.3,82,53.5c0,0,40.3,2.6,62-23.1c0,0,10.5-9.8,10.5-15.7s1-9.3-1.7-25.3c0,0-0.5-3.4-1.2-2.3
				C1177.1,179.9,1176.7,181.1,1176.6,181.4z"/>
			<path d="M1057.1,121.4c-20.7,1-38.3,13.8-38.3,13.8V46.4c0,0-0.1-10-10.4-10c-9.2,0-9.4,10-9.4,10v83.8c0,0,1.3,14.8-0.8,22.5
				c-4.8,18.5-28.6,24-28.6,24s-6-35.7-44.4-46.8c0,0-10.9-2.7-21.6-1.3c0,0-7.7,1.9-1.4,27.7s33.2,39.5,48.6,42.3
				c31.8,5.9,49.3-14.8,49.3-14.8v56.4c0,0-0.3,7.3,9.9,7.3c10.2,0,10.3-7.3,10.3-7.3v-59.3h18c0,0,29.3-2,35.8-29.5
				S1067.4,120.9,1057.1,121.4z M945.1,175.1c-4.3-1.3-12.6-6.9-16-14.5c-3.4-7.6-1.5-7.8-1.5-7.8c2.8,0.1,5.9,1.5,5.9,1.5
				c11.2,5.2,15.2,15.6,15.2,15.6c1.1,2.2,1.8,5.9,1.8,5.9C948.6,176,946.4,175.5,945.1,175.1z M1054,150.5
				c-7.1,10.8-18.7,11.1-18.7,11.1c-2.5,0.4-6.5-0.3-6.5-0.3c0.1-2.3,0.9-4.7,1.5-6c2-4.5,9.1-11.7,17.7-12.5
				c8.6-0.8,8.5,1.5,8.5,1.5C1055.9,147.4,1054,150.5,1054,150.5z"/>
			<path d="M508.9,113.6l3,18h33.2l2-17.8C547.1,113.9,509.1,113.4,508.9,113.6z"/>
		</g>
		<path d="M130.3,164c-1.8-3.4-3.3-6.9-5-10.3c-4.7,7.3-8.6,11.1-8.6,11.1C74.4,207.1,16,180.1,16,180.1c-0.3-0.1-1.6-0.9-1.6-0.9
			c-1.5-0.5,0.8,3,0.8,3c10.4,16.6,14.1,19,18.8,24.3c4.7,5.3,22.1,5.8,22.1,5.8c40.2,5.9,74.7-28.8,74.7-28.8
			c2.6-2.4,4.9-4.7,7.2-7.1C135.3,172.3,132.5,168.3,130.3,164z"/>
	</g>
	<g>
		<g>
			<path fill="#FFFFFF" d="M110.6,181.9c0,0,0,87.8,0,108.3c0,20.7,4.5,34,14,36.8c6.7,2,16.4,0.9,26.5-15.2
				c48.5-76.5,11.8-136,11.8-136c9.8,0.3,27.8-3.7,27.8-3.7c7.2,22.2,18,35.8,18,35.8c28,34.3,68.2,15.3,68.2,15.3
				c30.3-15,31.5-37.5,31.5-37.5c-13.5-1-16.8-1.2-20,2.7c-3.2,3.8-6.2,8.2-6.2,8.2S276,209.4,252,208c-24-1.3-36.7-18.8-37.8-40.3
				c-1.2-21.5,10.5-24.8,19-33.5c8.5-8.7,0.8-22.2,0.8-22.2c-19,5.8-26,17.2-34.8,26.3c-8.8,9.2-14.8,14.7-40.5,14.7
				c-25.7,0-25.5-16-25.5-16V25.9c0,0,0.2-9.2-11-9.2c-11.2,0-11,9.2-11,9.2v102.4c0,18.2-3.9,22.8-3.9,22.8 M137.7,290.5
				c-0.3,0.8-5.3,5.7-5.3-1.4c0-7,0.5-112.3,0.5-112.4h4.5c0,0,15.8,27,15.8,48S151.9,265.4,137.7,290.5z"/>
			<path fill="#FFFFFF" d="M815,186.5c-11,1.5-17.5,25-48.5,21.5s-40.1-35.4-29.6-56.9c0,0,2.3-6.7,9.4-11.9s6.8-11.3,6.8-14.5
				c0-10.4-3.3-9.8-3.3-9.8s-11,0.4-23.8,15.8s-20.3,27.8-29.8,31.3c0,0-6.3-40.2-46.2-51.7c0,0-11.3-2.8-22.3-1.3c0,0-8,1-1.5,27.7
				s34.3,42,50.3,43.8c17.3,2,32.5-6.2,32.5-6.2s1.4-0.5,1.4,1c0,2.9,4.6,27.1,19.6,40.8c15.4,14,49.6,22.8,78.6,0.4
				c0,0,14.7-11,20-29C828.5,187.5,826,185,815,186.5z M668.1,155.6c-4.3-1.3-12.6-6.9-16-14.5c-3.4-7.6-1.5-7.8-1.5-7.8
				c2.8,0.1,5.9,1.5,5.9,1.5c11.2,5.2,15.2,15.6,15.2,15.6c1.1,2.2,1.8,5.9,1.8,5.9C671.6,156.5,669.4,156,668.1,155.6z"/>
			<path fill="#FFFFFF" d="M952.3,186.5c-11,1.5-17.5,25-48.5,21.5s-40.1-35.4-29.6-56.9c0,0,2.3-6.7,9.4-11.9s6.8-11.3,6.8-14.5
				c0-10.4-3.3-9.8-3.3-9.8s-11,0.4-23.8,15.8S843,158.5,833.5,162c0,0-6.3-40.2-46.2-51.7c0,0-11.3-2.8-22.3-1.3c0,0-8,1-1.5,27.7
				s34.3,42,50.3,43.8c17.3,2,32.5-6.2,32.5-6.2s1.4-0.5,1.4,1c0,2.9,4.6,27.1,19.6,40.8c15.4,14,49.6,22.8,78.6,0.4
				c0,0,14.7-11,20-29C965.8,187.5,963.3,185,952.3,186.5z M805.4,155.6c-4.3-1.3-12.6-6.9-16-14.5c-3.4-7.6-1.5-7.8-1.5-7.8
				c2.8,0.1,5.9,1.5,5.9,1.5c11.2,5.2,15.2,15.6,15.2,15.6c1.1,2.2,1.8,5.9,1.8,5.9C808.9,156.5,806.7,156,805.4,155.6z"/>
			<path fill="#FFFFFF" d="M434,186.5c-11,1.5-17.5,25-48.5,21.5s-40.1-35.4-29.6-56.9c0,0,2.3-6.7,9.4-11.9s6.8-11.3,6.8-14.5
				c0-10.4-3.3-9.8-3.3-9.8s-11,0.4-23.8,15.8s-20.3,27.8-29.8,31.3c0,0-6.3-40.2-46.2-51.7c0,0-11.3-2.8-22.3-1.3c0,0-8,1-1.5,27.7
				s34.3,42,50.3,43.8c17.3,2,32.5-6.2,32.5-6.2s1.4-0.5,1.4,1c0,2.9,4.6,27.1,19.6,40.8c15.4,14,49.6,22.8,78.6,0.4
				c0,0,14.7-11,20-29C447.5,187.5,445,185,434,186.5z M287.1,155.6c-4.3-1.3-12.6-6.9-16-14.5c-3.4-7.6-1.5-7.8-1.5-7.8
				c2.8,0.1,5.9,1.5,5.9,1.5c11.2,5.2,15.2,15.6,15.2,15.6c1.1,2.2,1.8,5.9,1.8,5.9C290.6,156.5,288.4,156,287.1,155.6z"/>
			<path fill="#FFFFFF" d="M689.1,186.4c0,0-11.4-1.7-21.1,5.5c-5.6,4.2-9.8,7.3-9.8,7.3c-18.6,12.3-36.3,7.4-36.3,7.4
				c-28.1-10.1-25.8-39.8-25.8-46.5s5.1-16.5,13.6-20.9s8.3-10,8.3-12.8c0.1-2.8-0.1-11.1-0.1-13.5s-3.8-0.9-3.8-0.9l-16.5,7.6V19.4
				c0-5.1-8.5-3.8-12.6-2.5c-11.7,4.7-9.9,7.7-10.3,9.1v141c0,13.7-6.3,43.2-38.3,41.4c-32-1.8-35.8-35.6-35.9-41.2
				c0-1.5-0.2-26.1-0.2-26.1l0-58L500,25.9c0,0-0.8-9.9-10.4-9.9c-9.7,0-10.5,9.9-10.5,9.9s0,46.2,0,57.2s-7.8,11.5-7.8,11.5h-18.5
				V111l17.5,3.5c0,0,3.3,2.3-1.5,20.8c-4.8,18.5-22,20.8-22,20.8s-6-35.7-44.4-46.8c0,0-10.9-2.7-21.6-1.3c0,0-7.7,1.9-1.4,27.7
				c6.3,25.7,33.2,39.5,48.6,42.3c31.8,5.9,49.3-14.8,49.3-14.8c8.6,58.4,42.1,64.7,42.1,64.7c38.4,9.2,67.4-23.5,67.4-23.5
				c3.7,4,28.5,26.3,63.2,19.7c34.7-6.7,40.3-30.8,41.8-34.1S689.1,186.4,689.1,186.4z M422.1,154.6c-4.3-1.3-12.6-6.9-16-14.5
				c-3.4-7.6-1.5-7.8-1.5-7.8c2.8,0.1,5.9,1.5,5.9,1.5c11.2,5.2,15.2,15.6,15.2,15.6c1.1,2.2,1.8,5.9,1.8,5.9
				C425.6,155.5,423.4,155,422.1,154.6z"/>
			<path fill="#FFFFFF" d="M1175.6,160.9c0,0-21.3,48.7-70.7,45.7c0,0-29.3-1.3-52.2-29.2c0,0-8-17.7-26.2-9.3c0,0-3.6,1.3-2.2,4.3
				c1.4,3,19.7,52.3,82,53.5c0,0,40.3,2.6,62-23.1c0,0,10.5-9.8,10.5-15.7s1-9.3-1.7-25.3c0,0-0.5-3.4-1.2-2.3
				C1176.1,159.4,1175.7,160.6,1175.6,160.9z"/>
			<path fill="#FFFFFF" d="M1056.1,100.9c-20.7,1-38.3,13.8-38.3,13.8V25.9c0,0-0.1-10-10.4-10c-9.2,0-9.4,10-9.4,10v83.8
				c0,0,1.3,14.8-0.8,22.5c-4.8,18.5-28.6,24-28.6,24s-6-35.7-44.4-46.8c0,0-10.9-2.7-21.6-1.3c0,0-7.7,1.9-1.4,27.7
				s33.2,39.5,48.6,42.3c31.8,5.9,49.3-14.8,49.3-14.8v56.4c0,0-0.3,7.3,9.9,7.3c10.2,0,10.3-7.3,10.3-7.3v-59.3h18
				c0,0,29.3-2,35.8-29.5S1066.4,100.4,1056.1,100.9z M944.1,154.6c-4.3-1.3-12.6-6.9-16-14.5c-3.4-7.6-1.5-7.8-1.5-7.8
				c2.8,0.1,5.9,1.5,5.9,1.5c11.2,5.2,15.2,15.6,15.2,15.6c1.1,2.2,1.8,5.9,1.8,5.9C947.6,155.5,945.4,155,944.1,154.6z M1053,130
				c-7.1,10.8-18.7,11.1-18.7,11.1c-2.5,0.4-6.5-0.3-6.5-0.3c0.1-2.3,0.9-4.7,1.5-6c2-4.5,9.1-11.7,17.7-12.5
				c8.6-0.8,8.5,1.5,8.5,1.5C1054.9,126.9,1053,130,1053,130z"/>
			<path fill="#FFFFFF" d="M507.9,93.1l3,18h33.2l2-17.8C546.1,93.4,508.1,92.9,507.9,93.1z"/>
		</g>
		<path fill="#FFFFFF" d="M129.3,143.5c-1.8-3.4-3.3-6.9-5-10.3c-4.7,7.3-8.6,11.1-8.6,11.1C73.4,186.6,15,159.6,15,159.6
			c-0.3-0.1-1.6-0.9-1.6-0.9c-1.5-0.5,0.8,3,0.8,3c10.4,16.6,14.1,19,18.8,24.3c4.7,5.3,22.1,5.8,22.1,5.8
			c40.2,5.9,74.7-28.8,74.7-28.8c2.6-2.4,4.9-4.7,7.2-7.1C134.3,151.8,131.5,147.8,129.3,143.5z"/>
	</g>
</g>
</svg>
