<?xml version="1.0" encoding="utf-8"?>
<!-- Generator: Adobe Illustrator 18.0.0, SVG Export Plug-In . SVG Version: 6.00 Build 0)  -->
<!DOCTYPE svg PUBLIC "-//W3C//DTD SVG 1.1//EN" "http://www.w3.org/Graphics/SVG/1.1/DTD/svg11.dtd">
<svg version="1.1" xmlns="http://www.w3.org/2000/svg" xmlns:xlink="http://www.w3.org/1999/xlink" x="0px" y="0px"
	 viewBox="0 0 400.8 551" enable-background="new 0 0 400.8 551" xml:space="preserve">
<g id="BG">
</g>
<g id="BG_Texture">
</g>
<g id="Slipper_1">
</g>
<g id="Slipper_2">
	<g>
		<g>
			<path fill="#DD5F13" d="M390.4,144.3c0,0,28.5-63-33.2-119.1c-61.7-56.1-96.1-6.7-111.4,35.7c-21.7,59.6-7,126.9-38.7,199.6
				c-31.7,72.7-55.2,117.6-5.3,141.2c49.9,23.6,70.6,13.3,89.3-33c18.7-46.2,42.6-109.4,64.8-150.4
				C378.1,177.3,390.4,144.3,390.4,144.3z"/>
			<path fill="#FFFFFF" d="M394.3,147c0,0,28.5-63-33.2-119.1c-61.7-56.1-96.1-6.7-111.4,35.7c-21.7,59.6-7,126.9-38.7,199.6
				c-31.7,72.7-55.2,117.6-5.3,141.2c49.9,23.6,70.6,13.3,89.3-33c18.7-46.2,42.6-109.4,64.8-150.4C382,180,394.3,147,394.3,147z"/>
			<path fill="#DD5F13" d="M316.2,76.5c0,0-3-6-5.6-8.5c-2.6-2.4-5.4-3.5-8.3,0.1c-2.8,3.7-3.5,5.3-0.8,7.9l5.8,9.4L316.2,76.5z"/>
			<path fill="#DD5F13" d="M310.6,95.9c0,0,15.7,3.9,26,20.2c10.4,16.4,23.9,47.2,17.3,62c-6.6,14.7-37.5,53.7-47.7,71.5
				c-10.1,17.8-25.2,45.8-16.5,60.4c4,6.2,9.7-3,18.8-24.3c9.1-21.3,25.7-51.3,34.4-66.4c8.7-15,39-61.7,4-116.1
				c-28.5-42.3-51.5-26.9-74.2-14.2c-22.7,12.7-55.4,49.1-57.3,96.5c-0.3,30,2.8,41.4,3.3,61.5c0.5,20.1,4.1,36.4,9.1,35.6
				c5-0.8,10.9-13.6,9.1-39.5c-1.8-25.9-16.7-81.6-4.1-98.9c12.6-17.3,36.5-33.7,45-39.9C286.4,98,300.9,93.7,310.6,95.9z"/>
		</g>
		<g>
			<path fill="#DD5F13" d="M5.4,252.1c0,0-13.4-67.8,59.4-108.5c72.8-40.7,95.1,15.3,100.4,60c7.6,63-22,125.1-7.6,203.2
				c14.4,78,27.1,127-26.9,138.7c-54,11.7-71.7-3.1-79.5-52.4C43.5,443.9,34.6,377,22.2,332C9.8,287,5.4,252.1,5.4,252.1z"/>
			<path fill="#FFFFFF" d="M1,253.8c0,0-13.4-67.8,59.4-108.5c72.8-40.7,95.1,15.2,100.4,60c7.6,63-22,125.2-7.6,203.2
				c14.4,78,27.1,127-26.9,138.7c-54,11.7-71.7-3.1-79.5-52.3c-7.8-49.3-16.6-116.2-29-161.2C5.4,288.7,1,253.8,1,253.8z"/>
			<path fill="#DD5F13" d="M93,202.9c0,0,4.3-5.2,7.4-7c3.1-1.8,6.1-2.2,8,2c1.9,4.2,2.2,5.9-1.1,7.9l-7.8,7.8L93,202.9z"/>
			<path fill="#DD5F13" d="M94,223c0,0-16.1,0.2-29.9,13.8c-13.8,13.6-34,40.6-30.9,56.4c3.1,15.9,24.4,60.8,30.2,80.4
				c5.8,19.6,14.2,50.3,2.4,62.5c-5.3,5.1-8.8-5.2-12.8-27.9c-4-22.8-13.4-55.8-18.5-72.4c-5.1-16.6-24-68.9,22.4-114
				c37.4-34.7,56.2-14.5,75.5,3c19.2,17.5,42.8,60.4,33.9,107c-6.5,29.3-12.1,39.7-17.1,59.2c-5,19.5-12.2,34.5-16.9,32.6
				c-4.7-1.9-7.5-15.7,0.1-40.5c7.7-24.8,34.7-75.7,26.4-95.4c-8.3-19.7-28-41.1-34.8-49.1C117.2,230.6,104,223.2,94,223z"/>
		</g>
	</g>
</g>
<g id="Masterpiece_Container">
</g>
<g id="BTN:_Create">
</g>
<g id="BTN:_Create_LOAD" display="none">
</g>
<g id="BTN:_Signup">
</g>
<g id="Logo">
</g>
<g id="Modal:_Login" display="none">
</g>
<g id="Modal:_LoadLogin" display="none">
</g>
<g id="Modal:_LoadLogin_2" display="none">
</g>
<g id="Keyboard" display="none">
</g>
</svg>
