<?xml version="1.0" encoding="utf-8"?>
<!-- Generator: Adobe Illustrator 18.0.0, SVG Export Plug-In . SVG Version: 6.00 Build 0)  -->
<!DOCTYPE svg PUBLIC "-//W3C//DTD SVG 1.1//EN" "http://www.w3.org/Graphics/SVG/1.1/DTD/svg11.dtd">
<svg version="1.1" id="Layer_1" xmlns="http://www.w3.org/2000/svg" xmlns:xlink="http://www.w3.org/1999/xlink" x="0px" y="0px"
	 viewBox="-90 0 792 792" enable-background="new -90 0 792 792" xml:space="preserve">
<g>
	<g>
		<g>
			<g>
				
					<text transform="matrix(1 0 0 1 81.3072 565.3716)" fill="#C4994D" font-family="'Montserrat-Bold'" font-size="73.1627" letter-spacing="8">TOP VIEW</text>
			</g>
		</g>
	</g>
	<g>
		<g id="left_2_">
			
				<path id="bottom_left_2_" fill="#F5D079" stroke="#C4994D" stroke-width="7" stroke-linecap="round" stroke-linejoin="round" stroke-miterlimit="10" d="
				M171.3,440.5c0,0-93.7,7.4-136.3-97.4s36.2-125.2,97.4-125.2c86.2,0,165.1,50.1,272.6,43.6c107.6-6.5,175.3-15.8,182.7,58.4
				s-15.8,96.4-83.5,98.3c-67.7,2.8-159.5,3.7-221.6,13C219.6,439.6,171.3,440.5,171.3,440.5z"/>
			
				<path id="front_left_2_" fill="#F5D079" stroke="#C4994D" stroke-width="7" stroke-linecap="round" stroke-linejoin="round" stroke-miterlimit="10" d="
				M172.3,428.5c0,0-93.7,7.4-136.3-97.4S72.2,205,133.4,205c86.2,0,165.1,50.1,272.6,43.6c106.6-6.5,175.3-15.8,181.7,58.4
				c7.4,74.2-15.8,96.4-83.5,98.3c-67.7,2.8-158.6,3.7-221.6,13C220.5,427.6,172.3,428.5,172.3,428.5z"/>
		</g>
		<g>
			
				<path id="strap-connector-left_2_" fill="#F5D079" stroke="#C4994D" stroke-width="7" stroke-linecap="round" stroke-linejoin="round" stroke-miterlimit="10" d="
				M118.5,295c0,0-6.5-6.5-8.3-10.2c-1.9-4.6-1.9-8.3,3.7-10.2c5.6-1.9,8.3-1.9,10.2,2.8l9.3,11.1L118.5,295z"/>
			<g id="strap-highlight-left_2_">
				<g>
					
						<path fill="#F5D079" stroke="#C4994D" stroke-width="7" stroke-linecap="round" stroke-linejoin="round" stroke-miterlimit="10" d="
						M302.1,222.6c31.5,12.1,44.5,20.4,67.7,29.7c24.1,9.3,42.7,21.3,39.9,26.9c-2.8,5.6-21.3,7.4-51.9-6.5
						c-29.7-13-86.2-52.9-115-50.1c6.5-0.9,20.4-5.6,38-4.6C287.3,218,294.7,221.7,302.1,222.6z"/>
					
						<path fill="#F5D079" stroke="#C4994D" stroke-width="7" stroke-linecap="round" stroke-linejoin="round" stroke-miterlimit="10" d="
						M217.7,393.3c2.8,0.9,6.5,0.9,9.3,0.9c20.4-1.9,82.5-22.3,108.5-26.9s67.7-10.2,81.6,6.5c5.6,7.4-8.3,10.2-38,12.1
						c-22.3,0.9-51.9,5.6-75.1,9.3l0,0l0,0c-2.8,0.9-6.5,0.9-9.3,1.9C244.6,404.4,217.7,393.3,217.7,393.3z"/>
				</g>
			</g>
			
				<path id="strap-left_8_" fill="#F5D079" stroke="#C4994D" stroke-width="7" stroke-linecap="round" stroke-linejoin="round" stroke-miterlimit="10" d="
				M307.7,225.4c0,0-20.4-9.3-38.9-4.6c-18.5,4.6-31.5,12.1-40.8,15.8s-38,22.3-38,22.3s-27.8,14.8-33.4,20.4
				c-5.6,6.5-6.5,14.8-6.5,14.8s-0.9,8.3,2.8,15.8c3.7,7.4,27.8,26.9,27.8,26.9s24.1,24.1,32.5,29.7c8.3,5.6,18.5,15.8,36.2,24.1
				s46.1,4.5,46.1,4.5c-17,2.5-32.2,5.7-45.1,3.8c-13.9-0.9-18.5-2.8-18.5-2.8c-19.5-2.8-33.4-10.2-33.4-10.2
				c-20.4-11.1-25-16.7-41.7-31.5s-30-32.5-30-32.5c-14.8-22.3-10.2-29.7-10.2-29.7s-2.8-8.3,16.7-26.9c0,0,16.7-14.8,35.2-26
				c19.5-11.1,24.1-15.8,46.4-22.3c0,0,13.9-7.4,34.3-1.9c0,0,6.5,0.9,20.4,1.9C283.5,217.1,305.8,222.6,307.7,225.4z"/>
		</g>
	</g>
</g>
</svg>
